{
  "teaching_departments": {
    "获取所有授课部门": 1,
    "code": 200,
    "msg": "查询成功",
    "data": [
      {
        "id": "1",
        "name": "软件学院"
      },
      {
        "id": "2",
        "name": "商学院"
      }
    ]
  },
  "educational_levels": {
    "获取教育层次": 1,
    "code": 200,
    "msg": "查询成功",
    "data": [
      {
        "id": "1",
        "name": "本科"
      },
      {
        "id": "2",
        "name": "高职"
      }
    ]
  },
  "undone_plan": {
    "获取未完成执行计划": 1,
    "code": 200,
    "msg": "查询成功",
    "data": [
      {
        "id": "1",
        "year": "2018-2019",
        "term": 1,
        "teachingDepartment": "软件学院",
        "educationalLevel": "本科"
      },
      {
        "id": "2",
        "year": "2018-2019",
        "term": 2,
        "teachingDepartment": "软件学院",
        "educationalLevel": "本科"
      }
    ]
  },
  "plans": {
    "获取所有计划列表": 1,
    "code": 200,
    "msg": "获取计划列表成功",
    "data": {
      "pageNum": 1,
      "pageSize": 2,
      "size": 5,
      "orderBy": null,
      "startRow": 1,
      "endRow": 5,
      "total": 11,
      "pages": 3,
      "list": [
        {
          "id": "1",
          "year": "2018-2019",
          "term": 1,
          "teachingDepartment": "软件学院",
          "educationalLevel": "本科",
          "startTime": "2017-10-01 12：00",
          "endTime": "2017-10-01 12：00",
          "approvalStatus": "进行中"
        },
        {
          "id": "2",
          "year": "2018-2019",
          "term": 1,
          "teachingDepartment": "软件学院",
          "educationalLevel": "本科",
          "startTime": "2017-10-01 12：00",
          "endTime": "2017-10-01 12：00",
          "approvalStatus": "已完成"
        }
      ],
      "prePage": 0,
      "nextPage": 2,
      "isFirstPage": true,
      "isLastPage": false,
      "hasPreviousPage": false,
      "hasNextPage": true,
      "navigatePages": 8,
      "navigatepageNums": [
        1,
        2,
        3
      ],
      "navigateFirstPage": 1,
      "navigateLastPage": 3,
      "firstPage": 1,
      "lastPage": 3
    }
  },
  "done_plan": {
    "获取已完成执行计划": 1,
    "code": 200,
    "msg": "查询成功",
    "data": [
      {
        "id": "1",
        "year": "2018-2019",
        "term": 1,
        "teachingDepartment": "软件学院",
        "educationalLevel": "本科"
      },
      {
        "id": "2",
        "year": "2018-2019",
        "term": 2,
        "teachingDepartment": "软件学院",
        "educationalLevel": "本科"
      }
    ]
  },
  "colleges": {
    "获取所有学院": 1,
    "code": 200,
    "msg": "查询成功",
    "data": [
      {
        "id": "1",
        "name": "软件学院"
      },
      {
        "id": "2",
        "name": "商学院"
      }
    ]
  },
  "year": {
    "获取执行计划年": 1,
    "code": 200,
    "msg": "查询成功",
    "data": [
      "2018-2019",
      "2019-2020"
    ]
  },
  "term": {
    "获取计划学期": 1,
    "code": 200,
    "msg": "查询成功",
    "data": [
      1,
      2
    ],
    "id": "2018-2019"
  },
  "my_review": {
    "教务处我的审核": 1,
    "code": 200,
    "msg": "查询成功",
    "data": {
      "pageNum": 1,
      "pageSize": 2,
      "size": 5,
      "orderBy": null,
      "startRow": 1,
      "endRow": 5,
      "total": 11,
      "pages": 3,
      "list": [
        {
          "id": "1",
          "courseCode": "B001",
          "courseTitle": 1,
          "isBookPurchase": 0,
          "isbn": "9789993700142",
          "textbookName": "阿里技术参考图册",
          "textbookCategory": "出版",
          "press": "清华大学出版社",
          "author": "某某",
          "unitPrice": 15.00,
          "teacherBookNumber": 1,
          "discount": 0.76,
          "awardInformation": "获奖信息",
          "publicationDate": "2018-09",
          "subscriber": "周老师",
          "subscriberNumber": "13333333333",
          "approvalStatus": "审核通过",
          "isBuyBook": true
        },
        {
          "id": "2",
          "courseCode": "B001",
          "courseTitle": 1,
          "isBookPurchase": 0,
          "isbn": "9789993700142",
          "textbookName": "阿里技术参考图册",
          "textbookCategory": "出版",
          "press": "清华大学出版社",
          "author": "某某",
          "unitPrice": 15.00,
          "teacherBookNumber": 1,
          "discount": 0.76,
          "awardInformation": "获奖信息",
          "publicationDate": "2018-09",
          "subscriber": "周老师",
          "subscriberNumber": "13333333333",
          "approvalStatus": "审核通过",
          "isBuyBook": true
        }
      ],
      "prePage": 0,
      "nextPage": 2,
      "isFirstPage": true,
      "isLastPage": false,
      "hasPreviousPage": false,
      "hasNextPage": true,
      "navigatePages": 8,
      "navigatepageNums": [
        1,
        2,
        3
      ],
      "navigateFirstPage": 1,
      "navigateLastPage": 3,
      "firstPage": 1,
      "lastPage": 3
    }
  },
  "discounts": {
    "查询所有折扣": 1,
    "code": 200,
    "msg": "查询成功",
    "data": {
      "pageNum": 1,
      "pageSize": 2,
      "size": 5,
      "orderBy": null,
      "startRow": 1,
      "endRow": 5,
      "total": 11,
      "pages": 3,
      "list": [
        {
          "id": "1",
          "discount": 0.76
        },
        {
          "id": "2",
          "discount": 0.76
        }
      ],
      "prePage": 0,
      "nextPage": 2,
      "isFirstPage": true,
      "isLastPage": false,
      "hasPreviousPage": false,
      "hasNextPage": true,
      "navigatePages": 8,
      "navigatepageNums": [
        1,
        2,
        3
      ],
      "navigateFirstPage": 1,
      "navigateLastPage": 3,
      "firstPage": 1,
      "lastPage": 3
    }
  },
  "director_review": {
    "办公室主任我的审核": 1,
    "code": 200,
    "msg": "查询成功",
    "data": {
      "pageNum": 1,
      "pageSize": 2,
      "size": 5,
      "orderBy": null,
      "startRow": 1,
      "endRow": 5,
      "total": 11,
      "pages": 3,
      "list": [
        {
          "id": "1",
          "courseCode": "B001",
          "courseTitle": 1,
          "isBookPurchase": 0,
          "isbn": "9789993700142",
          "textbookName": "阿里技术参考图册",
          "textbookCategory": "出版",
          "press": "清华大学出版社",
          "author": "某某",
          "unitPrice": 15.00,
          "teacherBookNumber": 1,
          "discount": 0.76,
          "awardInformation": "获奖信息",
          "publicationDate": "2018-09",
          "subscriber": "周老师",
          "subscriberNumber": "13333333333",
          "approvalStatus": "审核通过"
        },
        {
          "id": "2",
          "courseCode": "B001",
          "courseTitle": 1,
          "isBookPurchase": 0,
          "isbn": "9789993700142",
          "textbookName": "阿里技术参考图册",
          "textbookCategory": "出版",
          "press": "清华大学出版社",
          "author": "某某",
          "unitPrice": 15.00,
          "teacherBookNumber": 1,
          "discount": 0.76,
          "awardInformation": "获奖信息",
          "publicationDate": "2018-09",
          "subscriber": "周老师",
          "subscriberNumber": "13333333333",
          "approvalStatus": "审核通过"
        }
      ],
      "prePage": 0,
      "nextPage": 2,
      "isFirstPage": true,
      "isLastPage": false,
      "hasPreviousPage": false,
      "hasNextPage": true,
      "navigatePages": 8,
      "navigatepageNums": [
        1,
        2,
        3
      ],
      "navigateFirstPage": 1,
      "navigateLastPage": 3,
      "firstPage": 1,
      "lastPage": 3
    }
  },
  "purchase_book": {
    "我的购书": 1,
    "code": 200,
    "msg": "查询成功",
    "data": {
      "pageNum": 1,
      "pageSize": 2,
      "size": 5,
      "orderBy": null,
      "startRow": 1,
      "endRow": 5,
      "total": 11,
      "pages": 3,
      "list": [
        {
          "id": "1",
          "courseCode": "B001",
          "courseTitle": 1,
          "isBookPurchase": 0,
          "isbn": "9789993700142",
          "textbookName": "阿里技术参考图册",
          "textbookCategory": "出版",
          "press": "清华大学出版社",
          "author": "某某",
          "unitPrice": 15.00,
          "teacherBookNumber": 1,
          "discount": 0.76,
          "awardInformation": "获奖信息",
          "publicationDate": "2018-09",
          "subscriber": "周老师",
          "subscriberNumber": "13333333333",
          "approvalStatus": "审核通过"
        },
        {
          "id": "2",
          "courseCode": "B001",
          "courseTitle": 1,
          "isBookPurchase": 0,
          "isbn": "9789993700142",
          "textbookName": "阿里技术参考图册",
          "textbookCategory": "出版",
          "press": "清华大学出版社",
          "author": "某某",
          "unitPrice": 15.00,
          "teacherBookNumber": 1,
          "discount": 0.76,
          "awardInformation": "获奖信息",
          "publicationDate": "2018-09",
          "subscriber": "周老师",
          "subscriberNumber": "13333333333",
          "approvalStatus": "审核通过"
        }
      ],
      "prePage": 0,
      "nextPage": 2,
      "isFirstPage": true,
      "isLastPage": false,
      "hasPreviousPage": false,
      "hasNextPage": true,
      "navigatePages": 8,
      "navigatepageNums": [
        1,
        2,
        3
      ],
      "navigateFirstPage": 1,
      "navigateLastPage": 3,
      "firstPage": 1,
      "lastPage": 3
    }
  },
  "courseTitles": {
    "获取课程名称": 1,
    "code": 200,
    "msg": "获取课程名称成功",
    "data": [
      {
        "id": "1",
        "courseCode": "B001",
        "courseTitle": 1
      },
      {
        "id": "2",
        "courseCode": "B001",
        "courseTitle": 1
      }
    ]
  }
}